# Blender MTL File: 'None'
# Material Count: 1

newmtl sismat
Ns 90.196078
Ka 0.000000 0.000000 0.000000
Kd 0.400000 0.400000 0.400000
Ks 0.115385 0.115385 0.115385
Ni 1.000000
d 1.000000
illum 2
map_Kd texture_walls.png
