# Blender MTL File: 'None'
# Material Count: 6

newmtl Material.008
Ns 92.156863
Ka 0.000000 0.000000 0.000000
Kd 0.149130 0.085053 0.028294
Ks 0.191729 0.191729 0.191729
Ni 1.000000
d 1.000000
illum 2

newmtl Material.009
Ns 92.156863
Ka 0.000000 0.000000 0.000000
Kd 0.194046 0.694046 0.794046
Ks 0.500000 0.500000 0.500000
Ni 1.000000
d 1.000000
illum 2

newmtl None
Ns 0.000000
Ka 0.000000 0.000000 0.000000
Kd 0.440000 0.240000 0.140000
Ks 0.800000 0.800000 0.800000
Ni 1.000000
d 1.000000
illum 2

newmtl material_murs.002
Ns 92.156863
Ka 0.000000 0.000000 0.000000
Kd 0.425383 0.425383 0.425383
Ks 0.214286 0.214286 0.214286
Ni 1.000000
d 1.000000
illum 2
map_Kd texture_walls.png

newmtl material_plafond.002
Ns 92.156863
Ka 0.000000 0.000000 0.000000
Kd 0.512000 0.512000 0.512000
Ks 0.139098 0.139098 0.139098
Ni 1.000000
d 1.000000
illum 2
map_Kd texture_ceiling.png

newmtl material_sol.002
Ns 92.156863
Ka 0.000000 0.000000 0.000000
Kd 0.512000 0.512000 0.512000
Ks 0.500000 0.500000 0.500000
Ni 1.000000
d 1.000000
illum 2
map_Kd texture_floor.png
